format 224
"fake-bankin-cd"
  revision 3
  modified_by 29 "mgalvan"


  
  // class settings
  default_attribute_visibility private default_relation_visibility private default_operation_visibility public
  
  classdiagramsettings draw_all_relations yes hide_attributes no hide_operations no hide_getset_operations no hide_ports no show_members_full_definition no show_members_visibility no show_members_stereotype no show_members_context no show_members_multiplicity no show_members_initialization no show_attribute_modifiers no member_max_width 127 show_parameter_dir yes show_parameter_name yes package_name_in_tab no class_drawing_mode natural drawing_language uml show_context_mode no auto_label_position yes show_relation_modifiers no show_relation_visibility no show_infonote no shadow yes gradient none show_stereotype_properties no end
  
  classcompositediagramsettings auto_label_position yes draw_all_relations yes shadow yes gradient none end
  
  usecasediagramsettings package_name_in_tab no show_context_mode no auto_label_position yes draw_all_relations yes class_drawing_mode actor shadow yes gradient none show_stereotype_properties no end
  
  sequencediagramsettings show_full_operations_definition no show_class_of_operation no write_horizontally yes instances_drawing_mode natural drawing_language uml draw_all_relations yes shadow yes gradient none show_stereotype_properties no show_class_context_mode no show_msg_context_mode no end
  
  collaborationdiagramsettings show_full_operations_definition no show_class_of_operation no show_hierarchical_rank no write_horizontally yes instances_drawing_mode natural drawing_language uml package_name_in_tab no show_class_pack_context_mode no show_msg_context_mode no draw_all_relations yes shadow yes gradient none show_stereotype_properties no end
  
  objectdiagramsettings write_horizontally yes package_name_in_tab no show_class_pack_context_mode no auto_label_position yes draw_all_relations yes shadow yes gradient none show_stereotype_properties no end
  
  objectcompositediagramsettings auto_label_position yes draw_all_relations yes shadow yes gradient none end
  
  componentdiagramsettings package_name_in_tab no show_context_mode no auto_label_position yes draw_all_relations yes shadow yes gradient none
   draw_component_as_icon no show_component_req_prov no show_component_rea no show_stereotype_properties no end
  
  deploymentdiagramsettings package_name_in_tab no show_context_mode no write_horizontally yes auto_label_position yes draw_all_relations yes shadow yes gradient none
   draw_component_as_icon no show_component_req_prov no show_component_rea no show_stereotype_properties no end
  
  statediagramsettings package_name_in_tab no show_context_mode no auto_label_position yes write_label_horizontally yes show_trans_definition no draw_all_relations yes shadow yes gradient none
   show_activities yes region_horizontally yes drawing_language uml show_stereotype_properties no end
  
  activitydiagramsettings package_name_in_tab no show_context_mode no show_opaque_action_definition no auto_label_position yes write_label_horizontally no draw_all_relations yes shadow yes gradient none
   show_infonote yes drawing_language uml show_stereotype_properties no end
  
  class_color yellow duration_color transparent continuation_color gray note_color blue fragment_color transparent subject_color transparent usecase_color yellow package_color transparent component_color green artifact_color green deploymentnode_color gray state_color yellow stateaction_color transparent activity_color transparent activityregion_color transparent activitypartition_color transparent activityaction_color transparent parameterpin_color white generalization_color black 
  dpi 96
  font_size 11
  diagram_format A4

  image_root_dir ""


  mark_for_import
  
  classview 128157 "class diagram"
    
    classdiagramsettings member_max_width 0 end
    
    classcompositediagramsettings end
    
    collaborationdiagramsettings end
    
    objectdiagramsettings end
    
    objectcompositediagramsettings end
    
    sequencediagramsettings end
    
    statediagramsettings
     end
    
    
    activitydiagramsettings
     end
    classdiagram 128157 "Fake Bankin' Class Diagram"
      classdiagramsettings draw_all_relations no show_members_full_definition yes show_members_visibility yes show_members_multiplicity yes member_max_width 0 end
      size A0
    end

    class 128285 "IDao"
      visibility package stereotype "interface"
      cpp_decl "${comment}${template}class ${name}${inherit} {
${members}};
${inlines}
"
      java_decl "${comment}${@}${visibility}${static}interface ${name}${extends} {
${members}}
"
      php_decl "${comment}interface ${name}${extends} {
${members}}
"
      python_2_2 python_decl "class ${name}${inherit}:
${docstring}${members}
"
      idl_decl "${comment}${abstract}${local}interface ${name}${inherit} {
${members}};
"
      explicit_switch_type ""
      mysql_decl ""
      
      operation 128157 "save"
	public explicit_return_type "bool"
	nparams 0
	
	
	
	
	
      end

      operation 128285 "update"
	public explicit_return_type "bool"
	nparams 0
	
	
	
	
	
      end

      operation 128413 "remove"
	public explicit_return_type "bool"
	nparams 0
	
	
	
	
	
      end

      classrelation 128157 // <association>
	relation 128157 ----
	  a role_name "" private
	    classrelation_ref 128157 // <association>
	  b role_name "" private
	    classrelation_ref 128285 // <association>
      end

      classrelation 128413 // <association>
	relation 128285 ----
	  a role_name "" private
	    classrelation_ref 128413 // <association>
	  b role_name "" private
	    classrelation_ref 128541 // <association>
      end

      classrelation 128669 // <association>
	relation 128413 ----
	  a role_name "" private
	    classrelation_ref 128669 // <association>
	  b role_name "" private
	    classrelation_ref 128797 // <association>
      end

      classrelation 128925 // <association>
	relation 128541 ----
	  a role_name "" private
	    classrelation_ref 128925 // <association>
	  b role_name "" private
	    classrelation_ref 129053 // <association>
      end

      classrelation 129181 // <association>
	relation 128669 ----
	  a role_name "" private
	    classrelation_ref 129181 // <association>
	  b role_name "" private
	    classrelation_ref 129309 // <association>
      end
    end

    class 128413 "User"
      visibility package stereotype "entity"
      cpp_decl ""
      java_decl ""
      php_decl ""
      python_2_2 python_decl ""
      idl_decl ""
      explicit_switch_type ""
      mysql_decl ""
      
      classrelation 128541 // <association>
	relation_ref 128285 // <association>
      end

      classrelation 129437 // <association>
	relation 128797 ----
	  a role_name "" public
	    classrelation_ref 129437 // <association>
	  b role_name "" public
	    classrelation_ref 129565 // <association>
      end

      classrelation 129565 // <association>
	relation_ref 128797 // <association>
      end

      attribute 128413 "id"
	private explicit_type "int"
	cpp_decl ""
	java_decl ""
	php_decl ""
	python_decl ""
	idl_decl ""
	mysql_decl ""
	MysqlColumn
      end

      attribute 128157 "surname"
	private explicit_type "string"
	cpp_decl ""
	java_decl ""
	php_decl ""
	python_decl ""
	idl_decl ""
	mysql_decl ""
	MysqlColumn
      end

      attribute 128285 "lastname"
	private explicit_type "string"
	cpp_decl ""
	java_decl ""
	php_decl ""
	python_decl ""
	idl_decl ""
	mysql_decl ""
	MysqlColumn
      end

      classrelation 129693 // <association>
	relation 128925 ----
	  a role_name "" private
	    classrelation_ref 129693 // <association>
	  b role_name "" private
	    classrelation_ref 129821 // <association>
      end

      classrelation 129949 // <realization>
	relation 129053 -_-|>
	  a public
	    classrelation_ref 129949 // <realization>
	  b parent class_ref 128285 // IDao
      end

      operation 128541 "save"
	public explicit_return_type "bool"
	nparams 0
	
	
	
	
	
      end

      operation 128669 "update"
	public explicit_return_type "bool"
	nparams 0
	
	
	
	
	
      end

      operation 128797 "remove"
	public explicit_return_type "bool"
	nparams 0
	
	
	
	
	
      end

      classrelation 131741 // <association>
	relation 130333 ----
	  a role_name "" multiplicity "1..*" private
	    classrelation_ref 131741 // <association>
	  b role_name "" multiplicity "1" private
	    classrelation_ref 131869 // <association>
      end

      operation 130717 "getAccount"
	public return_type class_ref 128541 // Account
	nparams 0
	
	
	
	
	
      end

      operation 131997 "getBalance"
	public explicit_return_type "float"
	nparams 0
	
	
	
	
	
      end

      operation 132125 "getForecastBalance"
	public explicit_return_type "float"
	nparams 0
	
	
	
	
	
      end
    end

    class 128541 "Account"
      visibility package stereotype "entity"
      cpp_decl ""
      java_decl ""
      php_decl ""
      python_2_2 python_decl ""
      idl_decl ""
      explicit_switch_type ""
      mysql_decl ""
      
      classrelation 128797 // <association>
	relation_ref 128413 // <association>
      end

      classrelation 129821 // <association>
	relation_ref 128925 // <association>
      end

      attribute 128541 "id"
	private explicit_type "int"
	cpp_decl ""
	java_decl ""
	php_decl ""
	python_decl ""
	idl_decl ""
	mysql_decl ""
	MysqlColumn
      end

      attribute 128669 "balance"
	private explicit_type "float"
	cpp_decl ""
	java_decl ""
	php_decl ""
	python_decl ""
	idl_decl ""
	mysql_decl ""
	MysqlColumn
      end

      attribute 128797 "forecastBalance"
	private explicit_type "float"
	cpp_decl ""
	java_decl ""
	php_decl ""
	python_decl ""
	idl_decl ""
	mysql_decl ""
	MysqlColumn
      end

      attribute 128925 "userFk"
	private type class_ref 128413 // User
	cpp_decl ""
	java_decl ""
	php_decl ""
	python_decl ""
	idl_decl ""
	mysql_decl ""
	MysqlColumn
      end

      classrelation 130077 // <realization>
	relation 129181 -_-|>
	  a public
	    classrelation_ref 130077 // <realization>
	  b parent class_ref 128285 // IDao
      end

      operation 128925 "save"
	public explicit_return_type "bool"
	nparams 0
	
	
	
	
	
      end

      operation 129053 "update"
	public explicit_return_type "bool"
	nparams 0
	
	
	
	
	
      end

      operation 129181 "remove"
	public explicit_return_type "bool"
	nparams 0
	
	
	
	
	
      end

      classrelation 131229 // <association>
	relation 130077 ----
	  a role_name "" multiplicity "1..*" private
	    classrelation_ref 131229 // <association>
	  b role_name "" multiplicity "1" private
	    classrelation_ref 131357 // <association>
      end

      classrelation 131485 // <association>
	relation 130205 ----
	  a role_name "" multiplicity "1..*" private
	    classrelation_ref 131485 // <association>
	  b role_name "" multiplicity "1" private
	    classrelation_ref 131613 // <association>
      end

      classrelation 131869 // <association>
	relation_ref 130333 // <association>
      end

      operation 130461 "getEntry"
	public return_type class_ref 128669 // Entry
	nparams 0
	
	
	
	
	
      end

      operation 130973 "setEntry"
	public return_type class_ref 128669 // Entry
	nparams 0
	
	
	
	
	
      end

      operation 130589 "getOutput"
	public return_type class_ref 128797 // Output
	nparams 0
	
	
	
	
	
      end

      operation 131101 "setOutput"
	public return_type class_ref 128797 // Output
	nparams 0
	
	
	
	
	
      end

      operation 130845 "getUser"
	public return_type class_ref 128413 // User
	nparams 0
	
	
	
	
	
      end
    end

    class 128669 "Entry"
      visibility package stereotype "entity"
      cpp_decl ""
      java_decl ""
      php_decl ""
      python_2_2 python_decl ""
      idl_decl ""
      explicit_switch_type ""
      mysql_decl ""
      
      classrelation 128285 // <association>
	relation_ref 128157 // <association>
      end

      attribute 129053 "id"
	private explicit_type "int"
	cpp_decl ""
	java_decl ""
	php_decl ""
	python_decl ""
	idl_decl ""
	mysql_decl ""
	MysqlColumn
      end

      classrelation 130205 // <realization>
	relation 129309 -_-|>
	  a public
	    classrelation_ref 130205 // <realization>
	  b parent class_ref 128285 // IDao
      end

      attribute 129437 "name"
	private explicit_type "string"
	cpp_decl ""
	java_decl ""
	php_decl ""
	python_decl ""
	idl_decl ""
	mysql_decl ""
	MysqlColumn
      end

      attribute 129565 "amount"
	private explicit_type "float"
	cpp_decl ""
	java_decl ""
	php_decl ""
	python_decl ""
	idl_decl ""
	mysql_decl ""
	MysqlColumn
      end

      attribute 129693 "createdAt"
	private explicit_type "date"
	cpp_decl ""
	java_decl ""
	php_decl ""
	python_decl ""
	idl_decl ""
	mysql_decl ""
	MysqlColumn
      end

      attribute 129821 "updatedAt"
	private explicit_type "date"
	cpp_decl ""
	java_decl ""
	php_decl ""
	python_decl ""
	idl_decl ""
	mysql_decl ""
	MysqlColumn
      end

      attribute 129949 "accountFk"
	private type class_ref 128541 // Account
	cpp_decl ""
	java_decl ""
	php_decl ""
	python_decl ""
	idl_decl ""
	mysql_decl ""
	MysqlColumn
      end

      operation 129309 "save"
	public explicit_return_type "bool"
	nparams 0
	
	
	
	
	
      end

      operation 129437 "update"
	public explicit_return_type "bool"
	nparams 0
	
	
	
	
	
      end

      operation 129565 "remove"
	public explicit_return_type "bool"
	nparams 0
	
	
	
	
	
      end

      classrelation 130973 // <association>
	relation 129949 ----
	  a role_name "" multiplicity "1..*" private
	    classrelation_ref 130973 // <association>
	  b role_name "" multiplicity "1..*" private
	    classrelation_ref 131101 // <association>
      end

      classrelation 131357 // <association>
	relation_ref 130077 // <association>
      end

      operation 131741 "getCategory"
	public return_type class_ref 128925 // Category
	nparams 0
	
	
	
	
	
      end

      operation 131869 "setCategory"
	public return_type class_ref 128925 // Category
	nparams 0
	
	
	
	
	
      end

      attribute 130717 "freeze"
	private explicit_type "bool"
	cpp_decl ""
	java_decl ""
	php_decl ""
	python_decl ""
	idl_decl ""
	mysql_decl ""
	MysqlColumn
      end
    end

    class 128797 "Output"
      visibility package stereotype "entity"
      cpp_decl ""
      java_decl ""
      php_decl ""
      python_2_2 python_decl ""
      idl_decl ""
      explicit_switch_type ""
      mysql_decl ""
      
      classrelation 129053 // <association>
	relation_ref 128541 // <association>
      end

      classrelation 130333 // <realization>
	relation 129437 -_-|>
	  a public
	    classrelation_ref 130333 // <realization>
	  b parent class_ref 128285 // IDao
      end

      classrelation 130589 // <generalisation>
	relation 129693 ---|>
	  a public
	    classrelation_ref 130589 // <generalisation>
	  b parent class_ref 128669 // Entry
      end

      classrelation 130717 // <association>
	relation 129821 ----
	  a role_name "" multiplicity "1..*" private
	    classrelation_ref 130717 // <association>
	  b role_name "" multiplicity "1..*" private
	    classrelation_ref 130845 // <association>
      end

      operation 130205 "save"
	public explicit_return_type "bool"
	nparams 0
	
	
	
	
	
      end

      operation 130077 "update"
	public explicit_return_type "bool"
	nparams 0
	
	
	
	
	
      end

      operation 130333 "remove"
	public explicit_return_type "bool"
	nparams 0
	
	
	
	
	
      end

      classrelation 131613 // <association>
	relation_ref 130205 // <association>
      end
    end

    class 128925 "Category"
      visibility package stereotype "entity"
      cpp_decl ""
      java_decl ""
      php_decl ""
      python_2_2 python_decl ""
      idl_decl ""
      explicit_switch_type ""
      mysql_decl ""
      
      classrelation 129309 // <association>
	relation_ref 128669 // <association>
      end

      classrelation 130461 // <realization>
	relation 129565 -_-|>
	  a public
	    classrelation_ref 130461 // <realization>
	  b parent class_ref 128285 // IDao
      end

      attribute 129181 "id"
	private explicit_type "int"
	cpp_decl ""
	java_decl ""
	php_decl ""
	python_decl ""
	idl_decl ""
	mysql_decl ""
	MysqlColumn
      end

      operation 129693 "save"
	public explicit_return_type "bool"
	nparams 0
	
	
	
	
	
      end

      operation 129821 "update"
	public explicit_return_type "bool"
	nparams 0
	
	
	
	
	
      end

      operation 129949 "remove"
	public explicit_return_type "bool"
	nparams 0
	
	
	
	
	
      end

      attribute 130077 "name"
	private explicit_type "string"
	cpp_decl ""
	java_decl ""
	php_decl ""
	python_decl ""
	idl_decl ""
	mysql_decl ""
	MysqlColumn
      end

      classrelation 130845 // <association>
	relation_ref 129821 // <association>
      end

      classrelation 131101 // <association>
	relation_ref 129949 // <association>
      end

      operation 131229 "getEntry"
	public return_type class_ref 128669 // Entry
	nparams 0
	
	
	
	
	
      end

      operation 131357 "getOutput"
	public return_type class_ref 128797 // Output
	nparams 0
	
	
	
	
	
      end
    end

    class 129053 "cat_output"
      visibility package stereotype "table"
      cpp_decl ""
      java_decl ""
      php_decl ""
      python_2_2 python_decl ""
      idl_decl ""
      explicit_switch_type ""
      mysql_decl ""
      
    end

    class 129181 "cat_entry"
      visibility package stereotype "table"
      cpp_decl ""
      java_decl ""
      php_decl ""
      python_2_2 python_decl ""
      idl_decl ""
      explicit_switch_type ""
      mysql_decl ""
      
    end
  end
end
